[gd_scene load_steps=2 format=2]

[ext_resource path="res://Objects/Components/NavBrain/NavBrain.gd" type="Script" id=1]

[node name="NavBrain" type="Node"]
script = ExtResource( 1 )

[node name="NavTween" type="Tween" parent="."]
