[gd_scene load_steps=5 format=2]

[ext_resource path="res://World/MapBase/map.gd" type="Script" id=1]
[ext_resource path="res://Resources/Data/layer1.tres" type="TileSet" id=3]
[ext_resource path="res://World/Components/MapTrigger.tscn" type="PackedScene" id=4]
[ext_resource path="res://World/MapBase/Layer1/PlaceholderMinecarts.tres" type="TileSet" id=5]

[node name="Level1" type="Node2D"]
script = ExtResource( 1 )

[node name="Visuals" type="Node2D" parent="."]
pause_mode = 1

[node name="Maps" type="Node2D" parent="."]
pause_mode = 1

[node name="TileMap" type="TileMap" parent="Maps"]
z_index = 1
tile_set = ExtResource( 3 )
cell_size = Vector2( 16, 16 )
format = 1
tile_data = PoolIntArray( -65526, 5, 0, -65525, 23, 0, -65524, 25, 0, -65523, 24, 0, -65522, 25, 0, 10, 16, 0, 11, 27, 0, 12, 27, 0, 13, 27, 0, 14, 27, 0, 65546, 16, 0, 65547, 27, 0, 65548, 27, 0, 65549, 27, 0, 65550, 0, 0, 131082, 9, 0, 131083, 27, 0, 131084, 27, 0, 131085, 27, 0, 131086, 13, 0, 196618, 9, 0, 196619, 27, 0, 196620, 27, 0, 196621, 27, 0, 196622, 13, 0, 262154, 9, 0, 262155, 27, 0, 262156, 27, 0, 262157, 27, 0, 262158, 13, 0, 327690, 16, 0, 327691, 27, 0, 327692, 27, 0, 327693, 27, 0, 327694, 13, 0, 393224, 25, 0, 393225, 25, 0, 393226, 26, 0, 393227, 27, 0, 393228, 27, 0, 393229, 27, 0, 393230, 13, 0, 458760, 27, 0, 458761, 27, 0, 458762, 27, 0, 458763, 27, 0, 458764, 27, 0, 458765, 27, 0, 458766, 13, 0, 524296, 1, 0, 524297, 1, 0, 524298, 1, 0, 524299, 1, 0, 524300, 1, 0, 524301, 1, 0, 524302, 8, 0 )

[node name="Minecarts" type="TileMap" parent="Maps"]
z_index = 1
tile_set = ExtResource( 5 )
cell_size = Vector2( 16, 16 )
format = 1
tile_data = PoolIntArray( 18, 0, 0, 131081, 0, 0, 131086, 0, 0, 196617, 0, 0, 196623, 0, 0, 196626, 0, 0 )

[node name="Triggers" type="Node2D" parent="."]
pause_mode = 1
z_index = 1

[node name="MapGoal" parent="Triggers" instance=ExtResource( 4 )]
position = Vector2( 128, 112 )
map_goal = true

[node name="MapGoal2" parent="Triggers" instance=ExtResource( 4 )]
position = Vector2( 224, 0 )
map_goal = true
trigger_id = 1

[node name="Events" type="Node2D" parent="."]
pause_mode = 1
z_index = 1

[node name="Actors" type="Node2D" parent="."]
pause_mode = 1
z_index = 1

[node name="Props" type="Node2D" parent="."]
pause_mode = 1
z_index = 1
