[gd_scene load_steps=3 format=2]

[ext_resource path="res://Objects/Components/vision_radius.gd" type="Script" id=1]

[sub_resource type="CircleShape2D" id=1]
radius = 200.0

[node name="VisionRadius" type="Area2D" groups=[
"Knight",
"Possessable",
]]
visible = false
monitorable = false
collision_mask = 5
script = ExtResource( 1 )

[node name="CollisionShape2D" type="CollisionShape2D" parent="."]
position = Vector2( 24, 24 )
shape = SubResource( 1 )
